<?xml version="1.0" encoding="UTF-8"?>
<svg width="14px" height="14px" viewBox="0 0 14 14" version="1.1" xmlns="http://www.w3.org/2000/svg" xmlns:xlink="http://www.w3.org/1999/xlink">
    <g id="Symbols" stroke="none" stroke-width="1" fill="none" fill-rule="evenodd">
        <g id="Block/Dashboard/Orders" transform="translate(-652.000000, -75.000000)" fill="#999999">
            <g id="Orders">
                <g id="Transaction__Item" transform="translate(24.000000, 55.000000)">
                    <g id="Status" transform="translate(619.000000, 16.000000)">
                        <g id="Group" transform="translate(9.000000, 4.000000)">
                            <path d="M7,14 C3.13400675,14 0,10.8659932 0,7 C0,3.13400675 3.13400675,0 7,0 C10.8659932,0 14,3.13400675 14,7 C14,10.8659932 10.8659932,14 7,14 Z M7,12.5 C10.0375661,12.5 12.5,10.0375661 12.5,7 C12.5,3.96243388 10.0375661,1.5 7,1.5 C3.96243388,1.5 1.5,3.96243388 1.5,7 C1.5,10.0375661 3.96243388,12.5 7,12.5 Z" id="Combined-Shape"></path>
                            <rect id="Rectangle-11" x="6.25" y="2.40002441" width="1.5" height="5.5"></rect>
                            <rect id="Rectangle-11" x="6.25" y="6.40002441" width="4" height="1.5"></rect>
                        </g>
                    </g>
                </g>
            </g>
        </g>
    </g>
</svg>
