<?xml version="1.0" encoding="UTF-8"?>
<svg width="19px" height="24px" viewBox="0 0 19 24" version="1.1" xmlns="http://www.w3.org/2000/svg" xmlns:xlink="http://www.w3.org/1999/xlink">
    <g id="Page-1" stroke="none" stroke-width="1" fill="none" fill-rule="evenodd">
        <g id="Onb.-Ind.-Upload-documents" transform="translate(-448.000000, -502.000000)" fill="#999999">
            <g id="Files" transform="translate(436.000000, 442.000000)">
                <g id="Files__Item-(exist)" transform="translate(0.000000, 48.000000)">
                    <g id="file-view" transform="translate(12.000000, 12.000000)">
                        <g id="file">
                            <path d="M13.1656,0 L0.2,0 L0.2,24 L19,24 L19,5.8344 L13.1656,0 Z M13.4,1.3656 L17.6344,5.6 L13.4,5.6 L13.4,1.3656 Z M1,23.2 L1,0.8 L12.6,0.8 L12.6,6.4 L18.2,6.4 L18.2,23.2 L1,23.2 Z" id="Shape" fill-rule="nonzero"></path>
                        </g>
                        <g id="eye" transform="translate(4.000000, 10.000000)">
                            <path d="M5.79822105,0.0171983646 C3.58259725,0.0171983646 1.57335383,1.22938654 0.0907361993,3.19830276 C-0.0302453998,3.35961156 -0.0302453998,3.58496944 0.0907361993,3.74627824 C1.57335383,5.71756665 3.58259725,6.92975483 5.79822105,6.92975483 C8.01384484,6.92975483 10.0230883,5.71756665 11.5057059,3.74865043 C11.6266875,3.58734163 11.6266875,3.36198375 11.5057059,3.20067495 C10.0230883,1.22938654 8.01384484,0.0171983646 5.79822105,0.0171983646 Z M5.95715766,5.90734171 C4.48640097,5.99985705 3.2718406,4.78766887 3.36435594,3.31453999 C3.44026596,2.09997962 4.42472407,1.11552151 5.63928444,1.03961149 C7.11004113,0.947096146 8.3246015,2.15928432 8.23208616,3.63241321 C8.15380395,4.84460139 7.16934584,5.8290595 5.95715766,5.90734171 Z M5.88361983,4.78292449 C5.09130896,4.83274045 4.43658501,4.18038869 4.48877315,3.38807782 C4.52910035,2.73335387 5.06047051,2.2043559 5.71519446,2.16165651 C6.50750533,2.11184056 7.16222927,2.76419232 7.11004113,3.55650318 C7.06734175,4.21359932 6.53597159,4.74259729 5.88361983,4.78292449 Z" id="Shape" fill-rule="nonzero"></path>
                        </g>
                    </g>
                </g>
            </g>
        </g>
    </g>
</svg>
