<?xml version="1.0" encoding="UTF-8"?>
<svg width="18px" height="18px" viewBox="0 0 18 18" version="1.1" xmlns="http://www.w3.org/2000/svg" xmlns:xlink="http://www.w3.org/1999/xlink">
    <g id="Symbols" stroke="none" stroke-width="1" fill="none" fill-rule="evenodd">
        <g id="AddressBook__Item/Pin/Star" fill="#E5E5E5" fill-rule="nonzero">
            <g id="star">
                <path d="M17.9415,6.61435714 C17.9035714,6.498 17.8029643,6.41314286 17.6817857,6.39546429 L11.8671429,5.55042857 L9.26678571,0.281571429 C9.21278571,0.171642857 9.10092857,0.102214286 8.97878571,0.102214286 C8.85664286,0.102214286 8.74446429,0.171642857 8.69078571,0.281571429 L6.09010714,5.55075 L0.275464286,6.39578571 C0.154285714,6.41346429 0.054,6.498 0.01575,6.61467857 C-0.0218571429,6.73071429 0.00932142857,6.85864286 0.0970714286,6.94382143 L4.30489286,11.04525 L3.31135714,16.83675 C3.29078571,16.9572857 3.34028571,17.0791071 3.43896429,17.1511071 C3.53828571,17.22375 3.66975,17.2330714 3.77742857,17.1755357 L8.97878571,14.4414643 L14.1795,17.1755357 C14.2264286,17.2002857 14.2781786,17.2125 14.3292857,17.2125 C14.3958214,17.2125 14.4620357,17.1919286 14.5182857,17.1511071 C14.6172857,17.0791071 14.6667857,16.9572857 14.6458929,16.83675 L13.6526786,11.0455714 L17.8605,6.94382143 C17.9479286,6.858 17.9794286,6.73039286 17.9415,6.61435714 Z" id="Shape"></path>
            </g>
        </g>
    </g>
</svg>
