<?xml version="1.0" encoding="UTF-8"?>
<svg width="10px" height="10px" viewBox="0 0 10 10" version="1.1" xmlns="http://www.w3.org/2000/svg" xmlns:xlink="http://www.w3.org/1999/xlink">
    <g id="Page-1" stroke="none" stroke-width="1" fill="none" fill-rule="evenodd">
        <g id="Onb.-Ind.-Upload-documents" transform="translate(-797.000000, -558.000000)" fill="#FFFFFF" fill-rule="nonzero">
            <g id="Files" transform="translate(436.000000, 442.000000)">
                <g id="Files__Item-(empty)" transform="translate(0.000000, 96.000000)">
                    <g id="UploadBtn" transform="translate(349.000000, 10.000000)">
                        <g id="uploading-archive" transform="translate(12.000000, 10.000000)">
                            <path d="M4.54867925,0 L2.56320755,1.98566038 C2.3654717,2.17886792 2.40943396,2.31509434 2.68566038,2.31509434 L3.79377358,2.31509434 L3.79358491,4.72792453 C3.79358491,5.1445283 4.13132075,5.48264151 4.54830189,5.48264151 C4.96509434,5.48264151 5.30301887,5.14471698 5.30301887,4.72792453 L5.30320755,2.31490566 L6.41188679,2.31490566 C6.68773585,2.31509434 6.73132075,2.17849057 6.53377358,1.98528302 L4.54867925,0 Z" id="Shape"></path>
                            <path d="M8.87301887,4.86226415 L7.73169811,4.86226415 C7.62716981,4.86226415 7.54301887,4.94660377 7.54301887,5.0509434 L7.54301887,8.43566038 L1.65660377,8.43566038 L1.65660377,5.0509434 C1.65660377,4.94660377 1.57226415,4.86226415 1.46792453,4.86226415 L0.326603774,4.86226415 C0.222264151,4.86226415 0.137924528,4.94660377 0.137924528,5.0509434 L0.137924528,8.91207547 C0.137924528,9.48660377 0.605660377,9.95396226 1.18018868,9.95396226 L8.01943396,9.95396226 C8.59415094,9.95396226 9.06150943,9.48622642 9.06150943,8.91207547 L9.06150943,5.0509434 C9.06169811,4.94660377 8.97754717,4.86226415 8.87301887,4.86226415 Z" id="Shape"></path>
                        </g>
                    </g>
                </g>
            </g>
        </g>
    </g>
</svg>
